<svg width="25" height="24" viewBox="0 0 25 24" fill="none" xmlns="http://www.w3.org/2000/svg">
<path d="M8.66602 22.32C8.38602 22.32 8.09602 22.25 7.83602 22.11C7.26602 21.81 6.91602 21.21 6.91602 20.57V19.15C3.89602 18.84 1.91602 16.62 1.91602 13.44V7.44C1.91602 4 4.22602 1.69 7.66602 1.69H17.666C21.106 1.69 23.416 4 23.416 7.44V13.44C23.416 16.88 21.106 19.19 17.666 19.19H13.896L9.63602 22.03C9.34602 22.22 9.00602 22.32 8.66602 22.32ZM7.66602 3.18C5.08602 3.18 3.41602 4.85 3.41602 7.43V13.43C3.41602 16.01 5.08602 17.68 7.66602 17.68C8.07602 17.68 8.41602 18.02 8.41602 18.43V20.56C8.41602 20.69 8.49602 20.75 8.54602 20.78C8.59602 20.81 8.69602 20.84 8.80602 20.77L13.256 17.81C13.376 17.73 13.526 17.68 13.676 17.68H17.676C20.256 17.68 21.926 16.01 21.926 13.43V7.43C21.926 4.85 20.256 3.18 17.676 3.18H7.66602Z" fill="#ADADAD"/>
<path d="M12.666 12.11C12.256 12.11 11.916 11.77 11.916 11.36V11.15C11.916 9.98998 12.766 9.41999 13.086 9.19999C13.456 8.94999 13.576 8.77999 13.576 8.51999C13.576 8.01999 13.166 7.60999 12.666 7.60999C12.166 7.60999 11.756 8.01999 11.756 8.51999C11.756 8.92999 11.416 9.26999 11.006 9.26999C10.596 9.26999 10.256 8.92999 10.256 8.51999C10.256 7.18999 11.336 6.10999 12.666 6.10999C13.996 6.10999 15.076 7.18999 15.076 8.51999C15.076 9.65999 14.236 10.23 13.926 10.44C13.536 10.7 13.416 10.87 13.416 11.15V11.36C13.416 11.78 13.076 12.11 12.666 12.11ZM12.666 14.6C12.4673 14.6003 12.2767 14.5216 12.1361 14.3813C11.9954 14.241 11.9162 14.0506 11.916 13.852C11.9157 13.6533 11.9944 13.4627 12.1347 13.3221C12.2749 13.1814 12.4653 13.1023 12.664 13.102C12.7623 13.1019 12.8598 13.1211 12.9507 13.1586C13.0416 13.1961 13.1243 13.2512 13.1939 13.3207C13.2635 13.3901 13.3188 13.4726 13.3566 13.5634C13.3943 13.6543 13.4139 13.7516 13.414 13.85C13.4141 13.9483 13.3949 14.0458 13.3574 14.1367C13.3198 14.2276 13.2648 14.3103 13.1953 14.3799C13.1259 14.4495 13.0434 14.5048 12.9525 14.5426C12.8617 14.5804 12.7643 14.5999 12.666 14.6Z" fill="#ADADAD"/>
</svg>
